{
    "name":  "p-bosh",
    "releases":  [
                     {
                         "name":  "bosh",
                         "url":  "file:///var/tempest/internal_releases/bosh"
                     },
                     {
                         "name":  "bosh-vsphere-cpi",
                         "url":  "file:///var/tempest/internal_releases/cpi"
                     },
                     {
                         "name":  "uaa",
                         "url":  "file:///var/tempest/internal_releases/uaa"
                     },
                     {
                         "name":  "credhub",
                         "url":  "file:///var/tempest/internal_releases/credhub"
                     },
                     {
                         "name":  "bosh-system-metrics-server",
                         "url":  "file:///var/tempest/internal_releases/bosh-system-metrics-server"
                     },
                     {
                         "name":  "os-conf",
                         "url":  "file:///var/tempest/internal_releases/os-conf"
                     },
                     {
                         "name":  "backup-and-restore-sdk",
                         "url":  "file:///var/tempest/internal_releases/backup-and-restore-sdk"
                     },
                     {
                         "name":  "bpm",
                         "url":  "file:///var/tempest/internal_releases/bpm"
                     },
                     {
                         "name":  "syslog",
                         "url":  "file:///var/tempest/internal_releases/syslog"
                     }
                 ],
    "resource_pools":  [
                           {
                               "name":  "director_resource_pool",
                               "network":  "NET-PKS-WEST-MGMT",
                               "stemcell":  "@{url=file:///var/tempest/stemcells/bosh-stemcell-97.28-vsphere-esxi-ubuntu-xenial-go_agent.tgz}",
                               "cloud_properties":  "@{cpu=2; disk=51200; ram=8192; datacenters=System.Object[]}",
                               "env":  "@{bosh=}"
                           }
                       ],
    "disk_pools":  [
                       {
                           "name":  "director_disk_pool",
                           "disk_size":  51200,
                           "cloud_properties":  "@{type=thin}"
                       }
                   ],
    "networks":  [
                     {
                         "name":  "NET-PKS-WEST-MGMT",
                         "type":  "manual",
                         "subnets":  ""
                     }
                 ],
    "instance_groups":  [
                            {
                                "name":  "bosh",
                                "instances":  1,
                                "templates":  "               ",
                                "resource_pool":  "director_resource_pool",
                                "persistent_disk_pool":  "director_disk_pool",
                                "networks":  "",
                                "properties":  "@{env=; nats=; postgres=; blobstore=; director=; hm=; agent=; ntp=System.Object[]; login=; dns=; encryption=; uaa=; uaadb=; vcenter=; syslog=}"
                            }
                        ],
    "cloud_provider":  {
                           "cert":  {
                                        "ca":  "-----BEGIN CERTIFICATE-----\nMIIDUDCCAjigAwIBAgIUIGs89VzT0v+vSfm/8iSG4YrBSHowDQYJKoZIhvcNAQEL\nBQAwHzELMAkGA1UEBhMCVVMxEDAOBgNVBAoMB1Bpdm90YWwwHhcNMTkwMzI4MTU1\nODA0WhcNMjMwMzI5MTU1ODA0WjAfMQswCQYDVQQGEwJVUzEQMA4GA1UECgwHUGl2\nb3RhbDCCASIwDQYJKoZIhvcNAQEBBQADggEPADCCAQoCggEBAMU4xiexNBEzC2Yo\nZTkyQWLZgbTuofphY2rHlKDaXmMkengt6MdS59hy8DFKnKW/9Ywpye6ROvLbhsmR\nT2g/l0hn5MNyIkExGcOn9/UmvAtNMaVJuuTqUE4+Hw/3R/QikZZOGW0TehVsnKrW\n4mACFzOhVRWEcEF/m9ljwlRvARWCyFoX/UN6IJMg5X7ayiOs1uHXazmK3cjWDlA1\nLQM+0m0wOIQeOz1/Frdmn/tBqPqDHMBTsm/PBwvKFKB4YEkxH8f7y8+LOf1u/tfy\nSSVwHTFOy3Q+qYPTmZfPYKYMp5J/y3nr7bhVrdyHLDU8aXOKnjFTaZlPTqF7qwF/\nz8MmUYMCAwEAAaOBgzCBgDAdBgNVHQ4EFgQUc49UGLln3t9jeYSjWp+MVT3ZpQIw\nHwYDVR0jBBgwFoAUc49UGLln3t9jeYSjWp+MVT3ZpQIwHQYDVR0lBBYwFAYIKwYB\nBQUHAwIGCCsGAQUFBwMBMA8GA1UdEwEB/wQFMAMBAf8wDgYDVR0PAQH/BAQDAgEG\nMA0GCSqGSIb3DQEBCwUAA4IBAQAPEe/SrMzKVJHhmnec1NUUhOJNFUSa88OYeppC\nhVjNcsEOT4Sw/fO0dJlOEjVJKebSo2xSyxj0f9G3nrV9FG59vj6VNQPLsb03aBrj\nXARJ9D38dQEhjcIbJfDPvQ76wMIUuLxL6fspBXYjKTTx7PZcRcPZ4zzcrcD230mx\nZmerpG2URlcbImnz+RYh4x7GrKBnQvs2B1Khxf3koqXS5eNvY2sRhY7DB9JiYmS1\nm2hNv843Od1UD5VkGQg3HkIb7LjGNTiy4WRt4OYLzZwaPYP/kaQG3Z66XUpeDJ2i\nGyWCEm35nb3wHN5+8i7n2lVa+v4bE95R7HWx9gGm5sLChyzo\n-----END CERTIFICATE-----\n"
                                    },
                           "template":  {
                                            "name":  "vsphere_cpi",
                                            "release":  "bosh-vsphere-cpi"
                                        },
                           "mbus":  "https://vcap:YhX3r0HohZjuQP3lKUuRO0OX1_S2l_kc@192.168.32.12:6868",
                           "properties":  {
                                              "agent":  "@{mbus=https://vcap:YhX3r0HohZjuQP3lKUuRO0OX1_S2l_kc@0.0.0.0:6868}",
                                              "blobstore":  "@{provider=local; path=/var/vcap/micro_bosh/data/cache}",
                                              "ntp":  "10.100.11.11",
                                              "vcenter":  "@{default_disk_type=thin; address=dell-vcsa-03.dell.ecore.af.smil.mil; user=administrator@dellvsphere.local; password=SMBl12!@; datacenters=System.Object[]; nsxt=}",
                                              "env":  ""
                                          }
                       },
    "tags":  {

             }
}
